{
  "id": 13,
  "name": "Finlandia",
  "volume": 1000,
  "imageFile": "bottles/images/finlandia.jpg",
  "guidelines": [
    {
      "value": 0,
      "height": 0.04
    },
    {
      "value": 100,
      "height": 0.1
    },
    {
      "value": 200,
      "height": 0.18
    },
    {
      "value": 300,
      "height": 0.24
    },
    {
      "value": 400,
      "height": 0.31
    },
    {
      "value": 500,
      "height": 0.38
    },
    {
      "value": 600,
      "height": 0.44
    },
    {
      "value": 700,
      "height": 0.49
    },
    {
      "value": 800,
      "height": 0.56
    },
    {
      "value": 900,
      "height": 0.62
    },
    {
      "value": 1000,
      "height": 0.75
    }
  ]
}