{
  "id": 5,
  "name": "Diplomatico",
  "volume": 700,
  "imageFile": "bottles/images/diplomatico.jpg",
  "guidelines": [
    {
      "value": 0,
      "height": 0.07
    },
    {
      "value": 100,
      "height": 0.15
    },
    {
      "value": 200,
      "height": 0.25
    },
    {
      "value": 300,
      "height": 0.34
    },
    {
      "value": 400,
      "height": 0.73
    },
    {
      "value": 500,
      "height": 0.51
    },
    {
      "value": 600,
      "height": 0.60
    },
    {
      "value": 700,
      "height": 0.73
    }
  ]
}
